// Jest Snapshot v1, https://goo.gl/fbAQLP

exports[`ChallengesFilter renders 1`] = `
<View
  collapsable={false}
  pointerEvents="box-none"
  style={
    Object {
      "flex": 1,
    }
  }
>
  <View
    style={
      Object {
        "backgroundColor": "#F8F9FA",
        "padding": 6,
      }
    }
  >
    <Text
      style={
        Array [
          Object {
            "color": "#000000",
            "fontFamily": "System",
            "fontWeight": "400",
            "textAlign": "left",
          },
          undefined,
        ]
      }
    >
      Nach Challenges suchen
    </Text>
    <TextInput
      accessibilityLabel="Suchbegriff"
      allowFontScaling={true}
      onChangeText={[Function]}
      placeholder="Suchen..."
      rejectResponderTermination={true}
      style={
        Object {
          "marginHorizontal": 6,
          "padding": 8,
        }
      }
      underlineColorAndroid="transparent"
      value={null}
    />
    <Text
      style={
        Array [
          Object {
            "color": "#000000",
            "fontFamily": "System",
            "fontWeight": "400",
            "textAlign": "left",
          },
          undefined,
        ]
      }
    >
      Kategorie
    </Text>
    <View>
      <RCTPicker
        items={
          Array [
            Object {
              "label": "Alle",
              "textColor": undefined,
              "value": null,
            },
            Object {
              "label": "Mobilität",
              "textColor": undefined,
              "value": "MOBILITY",
            },
            Object {
              "label": "Shopping",
              "textColor": undefined,
              "value": "SHOPPING",
            },
            Object {
              "label": "Leben",
              "textColor": undefined,
              "value": "LIFE",
            },
            Object {
              "label": "Arbeit/Ausbildung",
              "textColor": undefined,
              "value": "WORK_EDU",
            },
          ]
        }
        onChange={[Function]}
        selectedIndex={0}
        style={
          Array [
            Object {
              "height": 216,
            },
            undefined,
          ]
        }
      />
    </View>
    <Text
      style={
        Array [
          Object {
            "color": "#000000",
            "fontFamily": "System",
            "fontWeight": "400",
            "textAlign": "left",
          },
          undefined,
        ]
      }
    >
      Schwierigkeitsgrad
    </Text>
    <View>
      <RCTPicker
        items={
          Array [
            Object {
              "label": "Alle",
              "textColor": undefined,
              "value": null,
            },
            Object {
              "label": "Anfänger",
              "textColor": undefined,
              "value": "EASY",
            },
            Object {
              "label": "Amateur",
              "textColor": undefined,
              "value": "ADVANCED",
            },
            Object {
              "label": "Experte",
              "textColor": undefined,
              "value": "HARD",
            },
          ]
        }
        onChange={[Function]}
        selectedIndex={0}
        style={
          Array [
            Object {
              "height": 216,
            },
            undefined,
          ]
        }
      />
    </View>
    <View
      style={
        Object {
          "backgroundColor": "transparent",
          "borderColor": "transparent",
          "borderRadius": 4,
          "borderStyle": "solid",
          "borderWidth": 0,
          "elevation": 0,
          "minWidth": "auto",
        }
      }
    >
      <View
        accessibilityLabel="Filter zurücksetzen"
        accessibilityRole="button"
        accessible={true}
        focusable={true}
        onClick={[Function]}
        onResponderGrant={[Function]}
        onResponderMove={[Function]}
        onResponderRelease={[Function]}
        onResponderTerminate={[Function]}
        onResponderTerminationRequest={[Function]}
        onStartShouldSetResponder={[Function]}
        style={
          Array [
            Object {
              "overflow": "hidden",
            },
            Object {
              "borderRadius": 4,
            },
          ]
        }
      >
        <View
          style={
            Array [
              Object {
                "alignItems": "center",
                "flexDirection": "row",
                "justifyContent": "center",
              },
              undefined,
            ]
          }
        >
          <Text
            numberOfLines={1}
            style={
              Array [
                Object {
                  "color": "#000000",
                  "fontFamily": "System",
                  "fontWeight": "400",
                  "textAlign": "left",
                },
                Array [
                  Object {
                    "letterSpacing": 1,
                    "marginHorizontal": 16,
                    "marginVertical": 9,
                    "textAlign": "center",
                  },
                  Object {
                    "marginHorizontal": 8,
                  },
                  Object {
                    "textTransform": "uppercase",
                  },
                  Object {
                    "color": "#6200ee",
                    "fontFamily": "System",
                    "fontWeight": "500",
                  },
                  Object {
                    "fontFamily": "System",
                    "fontWeight": "500",
                  },
                  undefined,
                ],
              ]
            }
          >
            Filter zurücksetzen
          </Text>
        </View>
      </View>
    </View>
  </View>
</View>
`;
