// Jest Snapshot v1, https://goo.gl/fbAQLP

exports[`ChallengeListItem renders 1`] = `
<View
  collapsable={false}
  pointerEvents="box-none"
  style={
    Object {
      "flex": 1,
    }
  }
>
  <View
    accessibilityLabel="Challenge Title"
  >
    <View
      cardBorderRadius={20}
      style={
        Object {
          "backgroundColor": "#ffffff",
          "borderRadius": 4,
          "elevation": 1,
          "margin": 8,
          "shadowColor": "#000000",
          "shadowOffset": Object {
            "height": 0.5,
            "width": 0,
          },
          "shadowOpacity": 0.24,
          "shadowRadius": 0.75,
        }
      }
    >
      <View
        accessible={true}
        focusable={true}
        onClick={[Function]}
        onResponderGrant={[Function]}
        onResponderMove={[Function]}
        onResponderRelease={[Function]}
        onResponderTerminate={[Function]}
        onResponderTerminationRequest={[Function]}
        onStartShouldSetResponder={[Function]}
        style={
          Object {
            "flexGrow": 1,
            "flexShrink": 1,
          }
        }
      >
        <View
          style={
            Array [
              Object {
                "backgroundColor": "#eeeeee",
                "height": 195,
                "overflow": "hidden",
              },
              Object {
                "borderTopLeftRadius": 4,
                "borderTopRightRadius": 4,
              },
              Object {
                "height": 150,
                "width": "100%",
              },
            ]
          }
        >
          <Image
            siblings={
              Array [
                "withTheme(Card.Cover)",
                "withTheme(Card.Title)",
              ]
            }
            source={
              Object {
                "uri": "http://test.local/image/url",
              }
            }
            style={
              Array [
                Object {
                  "flex": 1,
                  "height": undefined,
                  "justifyContent": "flex-end",
                  "padding": 16,
                  "resizeMode": "cover",
                  "width": undefined,
                },
                Object {
                  "borderTopLeftRadius": 4,
                  "borderTopRightRadius": 4,
                },
              ]
            }
          />
        </View>
        <View
          style={
            Array [
              Object {
                "alignItems": "center",
                "flexDirection": "row",
                "justifyContent": "space-between",
                "paddingLeft": 16,
              },
              Object {
                "minHeight": 72,
              },
              Array [
                Object {
                  "backgroundColor": "#abcdef",
                },
              ],
            ]
          }
        >
          <View
            style={
              Array [
                Object {
                  "flex": 1,
                  "flexDirection": "column",
                  "justifyContent": "center",
                },
              ]
            }
          >
            <Text
              numberOfLines={1}
              style={
                Array [
                  Object {
                    "color": "#000000",
                    "fontFamily": "System",
                    "fontWeight": "400",
                    "textAlign": "left",
                  },
                  Array [
                    Object {
                      "color": "rgba(0, 0, 0, 0.87)",
                      "fontFamily": "System",
                      "fontWeight": "500",
                      "textAlign": "left",
                      "writingDirection": "ltr",
                    },
                    Array [
                      Object {
                        "fontSize": 20,
                        "letterSpacing": 0.15,
                        "lineHeight": 30,
                        "marginVertical": 2,
                      },
                      Array [
                        Object {
                          "minHeight": 30,
                        },
                        Object {
                          "marginBottom": 2,
                        },
                        undefined,
                      ],
                    ],
                    Array [
                      Object {
                        "fontSize": 20,
                        "letterSpacing": 0.15,
                        "lineHeight": 30,
                        "marginVertical": 2,
                      },
                      Array [
                        Object {
                          "minHeight": 30,
                        },
                        Object {
                          "marginBottom": 2,
                        },
                        undefined,
                      ],
                    ],
                  ],
                ]
              }
            >
              Challenge Title
            </Text>
          </View>
          <View>
            <Text />
          </View>
        </View>
      </View>
    </View>
  </View>
</View>
`;
